<?xml version='1.0' encoding='UTF-8'?>
<!-- This file was generated by dvisvgm 2.9.1 -->
<svg version='1.1' xmlns='http://www.w3.org/2000/svg' xmlns:xlink='http://www.w3.org/1999/xlink' width='447.218152pt' height='75.594182pt' viewBox='-72.000004 -72.000009 447.218152 75.594182'>
<g id='page1'>
<g stroke-miterlimit='10' transform='translate(-65.159704,-3.246128)scale(0.996264,-0.996264)'>
<g fill='#000' stroke='#000'>
<g stroke-width='0.4'>
<g stroke='none' transform='scale(-1.00375,1.00375)translate(-65.159704,-3.246128)scale(-1,-1)'/>
<g transform='translate(-6.86595,-6.86595)'>
<g stroke='none' transform='scale(-1.00375,1.00375)translate(-65.159704,-3.246128)scale(-1,-1)'>
<g stroke='#000' stroke-miterlimit='10' transform='translate(-58.319403,-15.799592)scale(0.996264,-0.996264)'>
<g fill='#000' stroke='#000'>
<g stroke-width='0.4'>
<g stroke-width='0.4'>
<g fill='#c0c0c0' stroke='#c0c0c0'>
<path d='M 10.9674 -5.73459 L 10.9674 63.07712 M 21.93481 -5.73459 L 21.93481 63.07712 M 32.90222 -5.73459 L 32.90222 63.07712 M 43.86963 -5.73459 L 43.86963 63.07712 M 65.80444 -5.73459 L 65.80444 63.07712 M 76.77185 -5.73459 L 76.77185 63.07712 M 87.73926 -5.73459 L 87.73926 63.07712 M 98.70667 -5.73459 L 98.70667 63.07712 M 120.64148 -5.73459 L 120.64148 63.07712 M 131.60889 -5.73459 L 131.60889 63.07712 M 142.5763 -5.73459 L 142.5763 63.07712 M 153.5437 -5.73459 L 153.5437 63.07712 M 175.47852 -5.73459 L 175.47852 63.07712 M 186.44592 -5.73459 L 186.44592 63.07712 M 197.41333 -5.73459 L 197.41333 63.07712 M 208.38074 -5.73459 L 208.38074 63.07712 M 230.31555 -5.73459 L 230.31555 63.07712 M 241.28296 -5.73459 L 241.28296 63.07712 M 252.25037 -5.73459 L 252.25037 63.07712 M 263.21777 -5.73459 L 263.21777 63.07712 M 285.15259 -5.73459 L 285.15259 63.07712 M 296.12 -5.73459 L 296.12 63.07712 M 307.0874 -5.73459 L 307.0874 63.07712 M 318.05481 -5.73459 L 318.05481 63.07712 M 339.98962 -5.73459 L 339.98962 63.07712 M 350.95703 -5.73459 L 350.95703 63.07712 M 361.92444 -5.73459 L 361.92444 63.07712 M 372.89185 -5.73459 L 372.89185 63.07712 M 394.82666 -5.73459 L 394.82666 63.07712 M 405.79407 -5.73459 L 405.79407 63.07712 M 416.76147 -5.73459 L 416.76147 63.07712 M 427.72888 -5.73459 L 427.72888 63.07712' fill='none'/>
</g>
</g>
<g stroke-width='0.4'>
<g fill='#c0c0c0' stroke='#c0c0c0'>
<path d='M 0.0 -5.73459 L 0.0 63.07712 M 54.83704 -5.73459 L 54.83704 63.07712 M 109.67407 -5.73459 L 109.67407 63.07712 M 164.51111 -5.73459 L 164.51111 63.07712 M 219.34814 -5.73459 L 219.34814 63.07712 M 274.18518 -5.73459 L 274.18518 63.07712 M 329.02222 -5.73459 L 329.02222 63.07712 M 383.85925 -5.73459 L 383.85925 63.07712 M 438.69629 -5.73459 L 438.69629 63.07712' fill='none'/>
</g>
</g>
<g stroke-width='0.4'>
<g fill='#c0c0c0' stroke='#c0c0c0'>
<path d='M 0.0 0.0 L 438.69629 0.0 M 0.0 28.67126 L 438.69629 28.67126 M 0.0 57.34253 L 438.69629 57.34253' fill='none'/>
</g>
</g>
<g stroke-width='0.2'>
<g fill='#808080' stroke='#808080'>
<path d='M 10.9674 -5.73459 L 10.9674 -2.88905 M 21.93481 -5.73459 L 21.93481 -2.88905 M 32.90222 -5.73459 L 32.90222 -2.88905 M 43.86963 -5.73459 L 43.86963 -2.88905 M 65.80444 -5.73459 L 65.80444 -2.88905 M 76.77185 -5.73459 L 76.77185 -2.88905 M 87.73926 -5.73459 L 87.73926 -2.88905 M 98.70667 -5.73459 L 98.70667 -2.88905 M 120.64148 -5.73459 L 120.64148 -2.88905 M 131.60889 -5.73459 L 131.60889 -2.88905 M 142.5763 -5.73459 L 142.5763 -2.88905 M 153.5437 -5.73459 L 153.5437 -2.88905 M 175.47852 -5.73459 L 175.47852 -2.88905 M 186.44592 -5.73459 L 186.44592 -2.88905 M 197.41333 -5.73459 L 197.41333 -2.88905 M 208.38074 -5.73459 L 208.38074 -2.88905 M 230.31555 -5.73459 L 230.31555 -2.88905 M 241.28296 -5.73459 L 241.28296 -2.88905 M 252.25037 -5.73459 L 252.25037 -2.88905 M 263.21777 -5.73459 L 263.21777 -2.88905 M 285.15259 -5.73459 L 285.15259 -2.88905 M 296.12 -5.73459 L 296.12 -2.88905 M 307.0874 -5.73459 L 307.0874 -2.88905 M 318.05481 -5.73459 L 318.05481 -2.88905 M 339.98962 -5.73459 L 339.98962 -2.88905 M 350.95703 -5.73459 L 350.95703 -2.88905 M 361.92444 -5.73459 L 361.92444 -2.88905 M 372.89185 -5.73459 L 372.89185 -2.88905 M 394.82666 -5.73459 L 394.82666 -2.88905 M 405.79407 -5.73459 L 405.79407 -2.88905 M 416.76147 -5.73459 L 416.76147 -2.88905 M 427.72888 -5.73459 L 427.72888 -2.88905 M 10.9674 63.07712 L 10.9674 60.23158 M 21.93481 63.07712 L 21.93481 60.23158 M 32.90222 63.07712 L 32.90222 60.23158 M 43.86963 63.07712 L 43.86963 60.23158 M 65.80444 63.07712 L 65.80444 60.23158 M 76.77185 63.07712 L 76.77185 60.23158 M 87.73926 63.07712 L 87.73926 60.23158 M 98.70667 63.07712 L 98.70667 60.23158 M 120.64148 63.07712 L 120.64148 60.23158 M 131.60889 63.07712 L 131.60889 60.23158 M 142.5763 63.07712 L 142.5763 60.23158 M 153.5437 63.07712 L 153.5437 60.23158 M 175.47852 63.07712 L 175.47852 60.23158 M 186.44592 63.07712 L 186.44592 60.23158 M 197.41333 63.07712 L 197.41333 60.23158 M 208.38074 63.07712 L 208.38074 60.23158 M 230.31555 63.07712 L 230.31555 60.23158 M 241.28296 63.07712 L 241.28296 60.23158 M 252.25037 63.07712 L 252.25037 60.23158 M 263.21777 63.07712 L 263.21777 60.23158 M 285.15259 63.07712 L 285.15259 60.23158 M 296.12 63.07712 L 296.12 60.23158 M 307.0874 63.07712 L 307.0874 60.23158 M 318.05481 63.07712 L 318.05481 60.23158 M 339.98962 63.07712 L 339.98962 60.23158 M 350.95703 63.07712 L 350.95703 60.23158 M 361.92444 63.07712 L 361.92444 60.23158 M 372.89185 63.07712 L 372.89185 60.23158 M 394.82666 63.07712 L 394.82666 60.23158 M 405.79407 63.07712 L 405.79407 60.23158 M 416.76147 63.07712 L 416.76147 60.23158 M 427.72888 63.07712 L 427.72888 60.23158' fill='none'/>
</g>
</g>
<g stroke-width='0.2'>
<g fill='#808080' stroke='#808080'>
<path d='M 0.0 -5.73459 L 0.0 -1.4667 M 54.83704 -5.73459 L 54.83704 -1.4667 M 109.67407 -5.73459 L 109.67407 -1.4667 M 164.51111 -5.73459 L 164.51111 -1.4667 M 219.34814 -5.73459 L 219.34814 -1.4667 M 274.18518 -5.73459 L 274.18518 -1.4667 M 329.02222 -5.73459 L 329.02222 -1.4667 M 383.85925 -5.73459 L 383.85925 -1.4667 M 438.69629 -5.73459 L 438.69629 -1.4667 M 0.0 63.07712 L 0.0 58.80923 M 54.83704 63.07712 L 54.83704 58.80923 M 109.67407 63.07712 L 109.67407 58.80923 M 164.51111 63.07712 L 164.51111 58.80923 M 219.34814 63.07712 L 219.34814 58.80923 M 274.18518 63.07712 L 274.18518 58.80923 M 329.02222 63.07712 L 329.02222 58.80923 M 383.85925 63.07712 L 383.85925 58.80923 M 438.69629 63.07712 L 438.69629 58.80923' fill='none'/>
</g>
</g>
<g stroke-width='0.2'>
<g fill='#808080' stroke='#808080'>
<path d='M 0.0 0.0 L 4.26826 0.0 M 0.0 28.67126 L 4.26826 28.67126 M 0.0 57.34253 L 4.26826 57.34253 M 438.69629 0.0 L 434.42801 0.0 M 438.69629 28.67126 L 434.42801 28.67126 M 438.69629 57.34253 L 434.42801 57.34253' fill='none'/>
</g>
</g>
<path d='M 0.0 -5.73459 L 0.0 63.07712 L 438.69629 63.07712 L 438.69629 -5.73459 L 0.0 -5.73459 Z' fill='none'/>
<g transform='translate(0.0,-9.26756)'>
<g stroke='none' transform='scale(-1.00375,1.00375)translate(-58.319403,-15.799592)scale(-1,-1)'>
<g fill='#000'>
<g stroke='none'/>
</g>
</g>
</g>
<g transform='translate(54.83704,-9.26756)'>
<g stroke='none' transform='scale(-1.00375,1.00375)translate(-58.319403,-15.799592)scale(-1,-1)'>
<g fill='#000'>
<g stroke='none'/>
</g>
</g>
</g>
<g transform='translate(109.67407,-9.26756)'>
<g stroke='none' transform='scale(-1.00375,1.00375)translate(-58.319403,-15.799592)scale(-1,-1)'>
<g fill='#000'>
<g stroke='none'/>
</g>
</g>
</g>
<g transform='translate(164.51111,-9.26756)'>
<g stroke='none' transform='scale(-1.00375,1.00375)translate(-58.319403,-15.799592)scale(-1,-1)'>
<g fill='#000'>
<g stroke='none'/>
</g>
</g>
</g>
<g transform='translate(219.34814,-9.26756)'>
<g stroke='none' transform='scale(-1.00375,1.00375)translate(-58.319403,-15.799592)scale(-1,-1)'>
<g fill='#000'>
<g stroke='none'/>
</g>
</g>
</g>
<g transform='translate(274.18518,-9.26756)'>
<g stroke='none' transform='scale(-1.00375,1.00375)translate(-58.319403,-15.799592)scale(-1,-1)'>
<g fill='#000'>
<g stroke='none'/>
</g>
</g>
</g>
<g transform='translate(329.02222,-9.26756)'>
<g stroke='none' transform='scale(-1.00375,1.00375)translate(-58.319403,-15.799592)scale(-1,-1)'>
<g fill='#000'>
<g stroke='none'/>
</g>
</g>
</g>
<g transform='translate(383.85925,-9.26756)'>
<g stroke='none' transform='scale(-1.00375,1.00375)translate(-58.319403,-15.799592)scale(-1,-1)'>
<g fill='#000'>
<g stroke='none'/>
</g>
</g>
</g>
<g transform='translate(438.69629,-9.26756)'>
<g stroke='none' transform='scale(-1.00375,1.00375)translate(-58.319403,-15.799592)scale(-1,-1)'>
<g fill='#000'>
<g stroke='none'/>
</g>
</g>
</g>
<g transform='translate(-3.53297,0.0)'>
<g stroke='none' transform='scale(-1.00375,1.00375)translate(-58.319403,-15.799592)scale(-1,-1)'>
<g fill='#000'>
<g stroke='none'/>
</g>
</g>
</g>
<g transform='translate(-3.53297,28.67126)'>
<g stroke='none' transform='scale(-1.00375,1.00375)translate(-58.319403,-15.799592)scale(-1,-1)'>
<g fill='#000'>
<g stroke='none'/>
</g>
</g>
</g>
<g transform='translate(-3.53297,57.34253)'>
<g stroke='none' transform='scale(-1.00375,1.00375)translate(-58.319403,-15.799592)scale(-1,-1)'>
<g fill='#000'>
<g stroke='none'/>
</g>
</g>
</g>
<clipPath id='pgfcp1'>
<path d='M 0.0 -5.73459 L 438.69629 -5.73459 L 438.69629 63.07712 L 0.0 63.07712 Z'/> </clipPath>
<g clip-path='url(#pgfcp1)'>
<g fill='#fff' stroke='#fff'>
<path d='M 0.0 0.0 L 438.69629 57.34253' fill='none'/>
</g>
</g>
</g>
</g>
</g>
</g>
</g>
</g>
</g>
</g>
</g>
</svg>