time;v1;time2;v2
0;0.233025;0;0.00291281
2.5E-5;-1.26954;2.5E-5;0.00150679
5.00E-005;-1.1033;5.00E-005;-0.0232784
7.5E-5;-1.24565;7.5E-5;-0.0521467
0.0001;-1.3701;0.0001;-0.0832133
0.000125;-4.96997;0.000125;-0.131947
0.00015;-0.440356;0.00015;-0.222323
0.000175;-0.37178;0.000175;-0.25192
0.0002;-1.78113;0.0002;-0.267372
0.000225;-4.34879;0.000225;-0.316727
0.00025;0.81968;0.00025;-0.393213
0.000275;0.146029;0.000275;-0.397063
0.0003;-0.720278;0.0003;-0.394215
0.000325;-2.45967;0.000325;-0.41586
0.00035;-1.29479;0.00035;-0.46525
0.000375;-0.943084;0.000375;-0.501008
0.0004;0.312931;0.0004;-0.520817
0.000425;0.884118;0.000425;-0.515847
0.00045;-3.07676;0.00045;-0.512628
0.000475;-1.91473;0.000475;-0.568202
0.0005;0.286132;0.0005;-0.611741
0.000525;-0.00991718;0.000525;-0.614992
0.00055;-1.76153;0.00055;-0.621305
0.000575;-1.35716;0.000575;-0.65636
0.0006;-1.89711;0.0006;-0.694223
0.000625;0.440404;0.000625;-0.729661
0.00065;-1.20761;0.00065;-0.735258
0.000675;-3.33387;0.000675;-0.767441
0.0007;-0.890253;0.0007;-0.831746
0.000725;-0.07535;0.000725;-0.860789
0.00075;-1.63252;0.00075;-0.872556
0.000775;-1.48734;0.000775;-0.906276
0.0008;-0.0880323;0.0008;-0.938234
0.000825;-1.93064;0.000825;-0.953943
0.00085;-3.8744;0.00085;-1.00263
0.000875;-2.5842;0.000875;-1.08602
0.0009;0.750365;0.0009;-1.1421
0.000925;-0.300799;0.000925;-1.14162
0.00095;-2.31784;0.00095;-1.15316
0.000975;-2.87064;0.000975;-1.20501
0.001;3.95958;0.001;0.0494948
0.001025;5.86768;0.001025;0.139937
0.00105;0.717616;0.00105;0.25722
0.001075;2.78934;0.001075;0.305251
0.0011;4.50967;0.0011;0.37352
0.001125;1.02439;0.001125;0.464572
0.00115;1.85727;0.00115;0.508174
0.001175;0.264775;0.001175;0.5445
0.0012;2.09978;0.0012;0.5654
0.001225;2.83489;0.001225;0.613312
0.00125;-0.782116;0.00125;0.66605
0.001275;0.705421;0.001275;0.667766
0.0013;0.19225;0.0013;0.677066
0.001325;1.74082;0.001325;0.690462
0.00135;0.346672;0.00135;0.721722
0.001375;-0.0149328;0.001375;0.734691
0.0014;2.00992;0.0014;0.744261
0.001425;1.71279;0.001425;0.784834
0.00145;3.51885;0.00145;0.836417
0.001475;2.54061;0.001475;0.912787
0.0015;-2.79932;0.0015;0.958129
0.001525;-1.31385;0.001525;0.916585
0.00155;3.01181;0.00155;0.895573
0.001575;-0.33432;0.001575;0.938902
0.0016;0.656122;0.0016;0.948613
0.001625;2.47025;0.001625;0.968449
0.00165;-0.283466;0.00165;1.01117
0.001675;0.477248;0.001675;1.01873
0.0017;0.778549;0.0017;1.02875
0.001725;-0.196505;0.001725;1.04289
0.00175;2.09331;0.00175;1.05158
0.001775;0.930796;0.001775;1.08953
0.0018;2.14167;0.0018;1.12269
0.001825;0.0801831;0.001825;1.1626
0.00185;0.166521;0.00185;1.17355
0.001875;1.85359;0.001875;1.18438
0.0019;2.4185;0.0019;1.22605
0.001925;-0.574999;0.001925;1.27168
0.00195;0.768151;0.00195;1.27538
0.001975;-1.74295;0.001975;1.27852
0.002;0.269385;0.002;0.00336732
0.002025;-0.495741;0.002025;0.00579149
0.00205;-2.43438;0.00205;-0.0114917
0.002075;1.69051;0.002075;-0.0470864
0.0021;1.28096;0.0021;-0.0237172
0.002125;-0.62346;0.002125;0.00207813
0.00215;0.0409063;0.00215;-0.0028051
0.002175;1.76783;0.002175;0.0026449
0.0022;-1.93064;0.0022;0.0242349
0.002225;-1.02953;0.002225;-0.00486623
0.00225;-1.87373;0.00225;-0.0378766
0.002275;0.604463;0.002275;-0.0708765
0.0023;-0.821196;0.0023;-0.072031
0.002325;1.41202;0.002325;-0.0773156
0.00235;-0.225701;0.00235;-0.0581441
0.002375;-2.30446;0.002375;-0.0656243
0.0024;-0.25573;0.0024;-0.106038
0.002425;-1.98698;0.002425;-0.128181
0.00245;-1.52242;0.00245;-0.168707
0.002475;-1.72612;0.002475;-0.209551
0.0025;-2.39223;0.0025;-0.254631
0.002525;-0.568734;0.002525;-0.304064
0.00255;-4.83723;0.00255;-0.343665
0.002575;1.28036;0.002575;-0.421321
0.0026;-1.88154;0.0026;-0.427976
0.002625;-0.935684;0.002625;-0.457899
0.00265;-2.92423;0.00265;-0.493518
0.002675;-3.26553;0.002675;-0.55976
0.0027;-3.52833;0.0027;-0.641071
0.002725;-0.492901;0.002725;-0.715537
0.00275;-0.476265;0.00275;-0.740438
0.002775;1.47916;0.002775;-0.744266
0.0028;-0.951464;0.0028;-0.725562
0.002825;-3.10804;0.002825;-0.748207
0.00285;-0.480584;0.00285;-0.805974
0.002875;0.0102259;0.002875;-0.826891
0.0029;-2.05532;0.0029;-0.837287
0.002925;-0.699572;0.002925;-0.874415
0.00295;-2.82162;0.00295;-0.906395
0.002975;-2.48184;0.002975;-0.966678
0.003;-1.89961;0.003;-0.0237452
0.003025;1.66067;0.003025;-0.0484859
0.00305;-2.4739;0.00305;-0.0390311
0.003075;-0.189652;0.003075;-0.0741334
0.0031;1.0912;0.0031;-0.0830555
0.003125;-1.83725;0.003125;-0.0733143
0.00315;-2.77925;0.00315;-0.110969
0.003175;-0.660703;0.003175;-0.167698
0.0032;-0.763687;0.0032;-0.193472
0.003225;-1.49099;0.003225;-0.215165
0.00325;-1.02798;0.00325;-0.24748
0.003275;-2.01672;0.003275;-0.279228
0.0033;0.704933;0.0033;-0.314186
0.003325;-0.878443;0.003325;-0.314501
0.00335;-1.81713;0.00335;-0.333776
0.003375;1.75213;0.003375;-0.360421
0.0034;-2.10268;0.0034;-0.347551
0.003425;-0.362418;0.003425;-0.376805
0.00345;-0.517391;0.00345;-0.393763
0.003475;-0.845564;0.003475;-0.407419
0.0035;-1.27092;0.0035;-0.428963
0.003525;-0.896447;0.003525;-0.457404
0.00355;-1.21324;0.00355;-0.482695
0.003575;-2.42583;0.003575;-0.516759
0.0036;0.249314;0.0036;-0.561205
0.003625;-0.211054;0.003625;-0.568037
0.00365;-1.41551;0.00365;-0.576414
0.003675;0.233069;0.003675;-0.599914
0.0037;-0.640829;0.0037;-0.604598
0.003725;-1.32145;0.003725;-0.619813
0.00375;-0.799493;0.00375;-0.647839
0.003775;1.62408;0.003775;-0.659903
0.0038;-0.610267;0.0038;-0.638709
0.003825;-2.60846;0.003825;-0.652981
0.00385;-0.0439677;0.00385;-0.699181
0.003875;1.75777;0.003875;-0.703459
0.0039;1.16698;0.0039;-0.669483
0.003925;-3.63568;0.003925;-0.657858
0.00395;-1.55554;0.00395;-0.720072
0.003975;-1.16415;0.003975;-0.765997
0.004;-0.998891;0.004;-0.0124861
0.004025;-0.190981;0.004025;-0.0299301
0.00405;-0.289748;0.00405;-0.0384824
0.004075;1.05373;0.004075;-0.0397168
0.0041;-1.05882;0.0041;-0.0277736
0.004125;-0.236217;0.004125;-0.0420144
0.00415;-4.20023;0.00415;-0.067864
0.004175;-2.32287;0.004175;-0.148531
0.0042;-1.21908;0.0042;-0.209826
0.004225;1.68497;0.004225;-0.232801
0.00425;-0.437769;0.00425;-0.211622
0.004275;0.578389;0.004275;-0.209488
0.0043;-3.35607;0.0043;-0.215656
0.004325;-2.63396;0.004325;-0.280155
0.00435;0.0750407;0.00435;-0.337725
0.004375;-0.39498;0.004375;-0.349095
0.0044;-0.678656;0.0044;-0.358193
0.004425;-3.24826;0.004425;-0.384684
0.00445;-1.19468;0.00445;-0.446628
0.004475;-0.122333;0.004475;-0.480583
0.0045;-2.76224;0.0045;-0.499109
0.004525;-0.984347;0.004525;-0.549758
0.00455;0.150434;0.00455;-0.577046
0.004575;-0.893104;0.004575;-0.582361
0.0046;-1.02451;0.0046;-0.600888
0.004625;-2.29502;0.004625;-0.631247
0.00465;-1.12789;0.00465;-0.678466
0.004675;-1.55165;0.004675;-0.713292
0.0047;-0.410257;0.0047;-0.745562
0.004725;-0.305154;0.004725;-0.760136
0.00475;-2.21436;0.00475;-0.776158
0.004775;-1.13359;0.004775;-0.819059
0.0048;-0.720793;0.0048;-0.850182
0.004825;-2.16392;0.004825;-0.875935
0.00485;-0.0147551;0.00485;-0.915065
0.004875;-3.45432;0.004875;-0.93872
0.0049;-0.79763;0.0049;-0.999677
0.004925;-0.525516;0.004925;-1.02955
0.00495;-2.33683;0.00495;-1.05137
0.004975;-1.85333;0.004975;-1.10023
0.005;0.572223;0.005;0.00715278
0.005025;-0.418063;0.005025;0.0149479
0.00505;1.11686;0.00505;0.015018
0.005075;0.994856;0.005075;0.0360357
0.0051;-2.44675;0.0051;0.0470754
0.005125;0.530415;0.005125;0.0126515
0.00515;-1.24063;0.00515;0.00612763
0.005175;-1.14927;0.005175;-0.0171281
0.0052;1.224;0.0052;-0.0363518
0.005225;-0.0434744;0.005225;-0.0209216
0.00525;-1.02391;0.00525;-0.0208125
0.005275;-2.59174;0.005275;-0.0488577
0.0053;0.450238;0.0053;-0.0944436
0.005325;-1.72884;0.005325;-0.104942
0.00535;-0.704554;0.00535;-0.134816
0.005375;0.116738;0.005375;-0.153275
0.0054;-1.04965;0.0054;-0.158639
0.005425;-2.63089;0.005425;-0.186609
0.00545;-1.60463;0.00545;-0.241516
0.005475;-1.05345;0.005475;-0.283612
0.0055;1.32978;0.0055;-0.302314
0.005525;-0.871062;0.005525;-0.28817
0.00555;2.33547;0.00555;-0.287416
0.005575;-1.3249;0.005575;-0.257641
0.0056;-1.80369;0.0056;-0.277507
0.005625;-0.435217;0.005625;-0.314902
0.00565;1.26803;0.00565;-0.324388
0.005675;-0.0605729;0.005675;-0.30532
0.0057;-0.911701;0.0057;-0.304845
0.005725;0.921909;0.005725;-0.316451
0.00575;-2.74022;0.00575;-0.316302
0.005775;0.958888;0.005775;-0.354136
0.0058;-3.52665;0.0058;-0.364266
0.005825;1.32297;0.005825;-0.413536
0.00585;1.06205;0.00585;-0.401756
0.005875;-0.673862;0.005875;-0.38135
0.0059;-2.0811;0.0059;-0.396827
0.005925;-2.47079;0.005925;-0.444615
0.00595;-1.75674;0.00595;-0.501786
0.005975;1.68882;0.005975;-0.534323
0.006;1.47048;0.006;0.018381
0.006025;-0.230736;0.006025;0.0419275
0.00605;-0.936438;0.00605;0.0403071
0.006075;1.37126;0.006075;0.0294519
0.0061;-2.45286;0.0061;0.0381843
0.006125;1.36452;0.006125;0.00870244
0.00615;-0.177451;0.00615;0.0204849
0.006175;2.0544;0.006175;0.0317729
0.0062;1.72923;0.0062;0.0724786
0.006225;0.225709;0.006225;0.110799
0.00625;2.29743;0.00625;0.131339
0.006275;1.61308;0.006275;0.177291
0.0063;0.955398;0.0063;0.217729
0.006325;-1.30393;0.006325;0.234941
0.00635;2.26263;0.00635;0.226617
0.006375;1.5008;0.006375;0.265148
0.0064;-0.194879;0.0064;0.298777
0.006425;0.104523;0.006425;0.302218
0.00645;0.761902;0.00645;0.306322
0.006475;1.28242;0.006475;0.3248
0.0065;-0.0678373;0.0065;0.349065
0.006525;2.23257;0.006525;0.36258
0.00655;1.61448;0.00655;0.406234
0.006575;1.08543;0.006575;0.446967
0.0066;-0.235972;0.0066;0.470802
0.006625;1.55284;0.006625;0.477862
0.00665;0.320391;0.00665;0.504094
0.006675;0.162653;0.006675;0.516582
0.0067;2.31535;0.0067;0.530275
0.006725;3.9243;0.006725;0.585893
0.00675;1.71794;0.00675;0.668103
0.006775;2.19357;0.006775;0.722227
0.0068;0.94154;0.0068;0.769868
0.006825;1.09419;0.006825;0.799259
0.00685;2.95974;0.00685;0.833751
0.006875;1.3491;0.006875;0.89326
0.0069;1.60478;0.0069;0.934764
0.006925;-0.123893;0.006925;0.966615
0.00695;1.66671;0.00695;0.978182
0.006975;1.40198;0.006975;1.01129
0.007;-1.89427;0.007;-0.0236783
0.007025;0.303189;0.007025;-0.0539862
0.00705;-0.386168;0.00705;-0.0584348
0.007075;1.78419;0.007075;-0.0561735
0.0071;-0.637936;0.0071;-0.0307041
0.007125;-2.70597;0.007125;-0.0451771
0.00715;-0.351839;0.00715;-0.0944006
0.007175;-1.52055;0.007175;-0.117875
0.0072;1.38479;0.0072;-0.138914
0.007225;-1.62373;0.007225;-0.128935
0.00725;-0.662623;0.00725;-0.152988
0.007275;-3.24069;0.007275;-0.1843
0.0073;-1.73051;0.0073;-0.248283
0.007325;-1.81564;0.007325;-0.298193
0.00735;-1.82416;0.00735;-0.343265
0.007375;-4.02408;0.007375;-0.398
0.0074;0.692719;0.0074;-0.469782
0.007425;-2.97777;0.007425;-0.487411
0.00745;1.36426;0.00745;-0.52847
0.007475;-2.49482;0.007475;-0.528535
0.0075;0.0417868;0.0075;-0.564256
0.007525;-3.69729;0.007525;-0.58936
0.00755;-2.99547;0.00755;-0.663289
0.007575;-0.841485;0.007575;-0.732125
0.0076;-1.94519;0.0076;-0.766736
0.007625;0.0875631;0.007625;-0.802297
0.00765;-3.04058;0.00765;-0.821612
0.007675;0.699408;0.007675;-0.869009
0.0077;-1.12574;0.0077;-0.874712
0.007725;-4.07065;0.007725;-0.907521
0.00775;0.209948;0.00775;-0.979181
0.007775;-1.24219;0.007775;-0.997819
0.0078;-0.750539;0.0078;-1.02077
0.007825;-0.451379;0.007825;-1.04034
0.00785;0.2131;0.00785;-1.0501
0.007875;1.45621;0.007875;-1.04236
0.0079;-2.56256;0.0079;-1.02788
0.007925;-0.836844;0.007925;-1.06801
0.00795;-2.03827;0.00795;-1.10113
0.007975;-0.708831;0.007975;-1.14154
0.008;-3.07327;0.008;-0.0384159
0.008025;-1.60205;0.008025;-0.0963122
0.00805;0.674425;0.00805;-0.133008
0.008075;-2.52844;0.008075;-0.138978
0.0081;-1.12571;0.0081;-0.182999
0.008125;-1.16655;0.008125;-0.217157
0.00815;1.62679;0.00815;-0.234511
0.008175;0.180733;0.008175;-0.211506
0.0082;-0.145327;0.0082;-0.202321
0.008225;-0.180589;0.008225;-0.204742
0.00825;0.500029;0.00825;-0.206274
0.008275;-2.40702;0.008275;-0.208722
0.0083;-0.568556;0.0083;-0.249125
0.008325;-2.49229;0.008325;-0.279015
0.00835;0.0251361;0.00835;-0.322817
0.008375;1.94932;0.008375;-0.32466
0.0084;-2.57991;0.0084;-0.302816
0.008425;1.27566;0.008425;-0.332378
0.00845;-0.765628;0.00845;-0.325056
0.008475;-1.45367;0.008475;-0.338558
0.0085;1.22652;0.0085;-0.360866
0.008525;-0.160715;0.008525;-0.34715
0.00855;-2.03355;0.00855;-0.353192
0.008575;-0.503993;0.008575;-0.389854
0.0086;-2.1079;0.0086;-0.41551
0.008625;0.435896;0.008625;-0.450925
0.00865;-1.27786;0.00865;-0.457768
0.008675;0.100676;0.008675;-0.476829
0.0087;-2.50148;0.0087;-0.490899
0.008725;-2.8625;0.008725;-0.544098
0.00875;-0.30292;0.00875;-0.603491
0.008775;-1.82228;0.008775;-0.62806
0.0088;-0.751751;0.0088;-0.662825
0.008825;-1.07963;0.008825;-0.687446
0.00885;-1.87066;0.00885;-0.716367
0.008875;-2.71821;0.008875;-0.763369
0.0089;-2.05911;0.0089;-0.825046
0.008925;1.02417;0.008925;-0.866423
0.00895;-2.64779;0.00895;-0.868966
0.008975;0.316504;0.008975;-0.907509
0.009;-2.55187;0.009;-0.0318984
0.009025;0.576458;0.009025;-0.0720277
0.00905;1.31058;0.00905;-0.0675922
0.009075;-1.72943;0.009075;-0.0505533
0.0091;0.1093;0.0091;-0.073461
0.009125;0.920144;0.009125;-0.0750114
0.00915;-0.37766;0.00915;-0.0607938
0.009175;-0.909735;0.009175;-0.0670448
0.0092;-0.152515;0.0092;-0.0844161
0.009225;-0.535111;0.009225;-0.0929782
0.00925;-1.64723;0.00925;-0.109396
0.009275;-2.00347;0.009275;-0.147427
0.0093;0.214334;0.0093;-0.186788
0.009325;-2.56261;0.009325;-0.202241
0.00935;-0.799199;0.00935;-0.247389
0.009375;-1.84154;0.009375;-0.279059
0.0094;1.44768;0.0094;-0.307049
0.009425;1.04944;0.009425;-0.286222
0.00945;0.62514;0.00945;-0.260094
0.009475;0.204296;0.009475;-0.244451
0.0095;-0.501837;0.0095;-0.240533
0.009525;0.197382;0.009525;-0.247223
0.00955;3.25572;0.00955;-0.232459
0.009575;2.36149;0.009575;-0.167535
0.0096;0.750077;0.0096;-0.111486
0.009625;-2.51625;0.009625;-0.0996296
0.00965;0.953198;0.00965;-0.13447
0.009675;-2.44293;0.009675;-0.139247
0.0097;1.47425;0.0097;-0.169848
0.009725;-1.94222;0.009725;-0.163549
0.00975;-1.40957;0.00975;-0.195649
0.009775;1.13622;0.009775;-0.222501
0.0098;0.509694;0.0098;-0.207313
0.009825;-3.55986;0.009825;-0.208917
0.00985;-1.64114;0.00985;-0.272962
0.009875;-0.158375;0.009875;-0.315807
0.0099;-1.55941;0.0099;-0.331782
0.009925;-2.1304;0.009925;-0.367309
0.00995;-2.18162;0.00995;-0.418403
0.009975;-4.76502;0.009975;-0.483494
0.01;-1.45837;0.01;-0.0182297
