ZENITH(DEG),AZIMUTH(DEG),VERT(dBi),HORI(dBi),TOTAL(dBi)
90.0,0.0,-999.00,0.12,0.12
90.0,1.0,-999.00,0.12,0.12
90.0,2.0,-999.00,0.11,0.11
90.0,3.0,-999.00,0.09,0.09
90.0,4.0,-999.00,0.06,0.06
90.0,5.0,-999.00,0.03,0.03
90.0,6.0,-999.00,-0.01,-0.01
90.0,7.0,-999.00,-0.06,-0.06
90.0,8.0,-999.00,-0.12,-0.12
90.0,9.0,-999.00,-0.19,-0.19
90.0,10.0,-999.00,-0.26,-0.26
90.0,11.0,-999.00,-0.34,-0.34
90.0,12.0,-999.00,-0.43,-0.43
90.0,13.0,-999.00,-0.53,-0.53
90.0,14.0,-999.00,-0.64,-0.64
90.0,15.0,-999.00,-0.75,-0.75
90.0,16.0,-999.00,-0.87,-0.87
90.0,17.0,-999.00,-1.00,-1.00
90.0,18.0,-999.00,-1.14,-1.14
90.0,19.0,-999.00,-1.29,-1.29
90.0,20.0,-999.00,-1.45,-1.45
90.0,21.0,-999.00,-1.61,-1.61
90.0,22.0,-999.00,-1.78,-1.78
90.0,23.0,-999.00,-1.97,-1.97
90.0,24.0,-999.00,-2.16,-2.16
90.0,25.0,-999.00,-2.36,-2.36
90.0,26.0,-999.00,-2.56,-2.56
90.0,27.0,-999.00,-2.78,-2.78
90.0,28.0,-999.00,-3.01,-3.01
90.0,29.0,-999.00,-3.25,-3.25
90.0,30.0,-999.00,-3.49,-3.49
90.0,31.0,-999.00,-3.75,-3.75
90.0,32.0,-999.00,-4.01,-4.01
90.0,33.0,-999.00,-4.29,-4.29
90.0,34.0,-999.00,-4.58,-4.58
90.0,35.0,-999.00,-4.87,-4.87
90.0,36.0,-999.00,-5.18,-5.18
90.0,37.0,-999.00,-5.50,-5.50
90.0,38.0,-999.00,-5.83,-5.83
90.0,39.0,-999.00,-6.17,-6.17
90.0,40.0,-999.00,-6.52,-6.52
90.0,41.0,-999.00,-6.88,-6.88
90.0,42.0,-999.00,-7.25,-7.25
90.0,43.0,-999.00,-7.63,-7.63
90.0,44.0,-999.00,-8.03,-8.03
90.0,45.0,-999.00,-8.43,-8.43
90.0,46.0,-999.00,-8.84,-8.84
90.0,47.0,-999.00,-9.27,-9.27
90.0,48.0,-999.00,-9.70,-9.70
90.0,49.0,-999.00,-10.15,-10.15
90.0,50.0,-999.00,-10.60,-10.60
90.0,51.0,-999.00,-11.06,-11.06
90.0,52.0,-999.00,-11.52,-11.52
90.0,53.0,-999.00,-11.99,-11.99
90.0,54.0,-999.00,-12.46,-12.46
90.0,55.0,-999.00,-12.93,-12.93
90.0,56.0,-999.00,-13.40,-13.40
90.0,57.0,-999.00,-13.86,-13.86
90.0,58.0,-999.00,-14.32,-14.32
90.0,59.0,-999.00,-14.76,-14.76
90.0,60.0,-999.00,-15.19,-15.19
90.0,61.0,-999.00,-15.59,-15.59
90.0,62.0,-999.00,-15.98,-15.98
90.0,63.0,-999.00,-16.34,-16.34
90.0,64.0,-999.00,-16.68,-16.68
90.0,65.0,-999.00,-17.00,-17.00
90.0,66.0,-999.00,-17.29,-17.29
90.0,67.0,-999.00,-17.56,-17.56
90.0,68.0,-999.00,-17.81,-17.81
90.0,69.0,-999.00,-18.04,-18.04
90.0,70.0,-999.00,-18.27,-18.27
90.0,71.0,-999.00,-18.49,-18.49
90.0,72.0,-999.00,-18.72,-18.72
90.0,73.0,-999.00,-18.95,-18.95
90.0,74.0,-999.00,-19.21,-19.21
90.0,75.0,-999.00,-19.48,-19.48
90.0,76.0,-999.00,-19.79,-19.79
90.0,77.0,-999.00,-20.13,-20.13
90.0,78.0,-999.00,-20.52,-20.52
90.0,79.0,-999.00,-20.98,-20.98
90.0,80.0,-999.00,-21.50,-21.50
90.0,81.0,-999.00,-22.11,-22.11
90.0,82.0,-999.00,-22.84,-22.84
90.0,83.0,-999.00,-23.70,-23.70
90.0,84.0,-999.00,-24.75,-24.75
90.0,85.0,-999.00,-26.05,-26.05
90.0,86.0,-999.00,-27.71,-27.71
90.0,87.0,-999.00,-29.93,-29.93
90.0,88.0,-999.00,-33.18,-33.18
90.0,89.0,-999.00,-38.94,-38.94
90.0,90.0,-999.00,-999.00,-999.00
90.0,91.0,-999.00,-38.43,-38.43
90.0,92.0,-999.00,-32.16,-32.16
90.0,93.0,-999.00,-28.39,-28.39
90.0,94.0,-999.00,-25.66,-25.66
90.0,95.0,-999.00,-23.49,-23.49
90.0,96.0,-999.00,-21.68,-21.68
90.0,97.0,-999.00,-20.12,-20.12
90.0,98.0,-999.00,-18.75,-18.75
90.0,99.0,-999.00,-17.52,-17.52
90.0,100.0,-999.00,-16.40,-16.40
90.0,101.0,-999.00,-15.37,-15.37
90.0,102.0,-999.00,-14.42,-14.42
90.0,103.0,-999.00,-13.53,-13.53
90.0,104.0,-999.00,-12.71,-12.71
90.0,105.0,-999.00,-11.93,-11.93
90.0,106.0,-999.00,-11.19,-11.19
90.0,107.0,-999.00,-10.49,-10.49
90.0,108.0,-999.00,-9.83,-9.83
90.0,109.0,-999.00,-9.20,-9.20
90.0,110.0,-999.00,-8.59,-8.59
90.0,111.0,-999.00,-8.01,-8.01
90.0,112.0,-999.00,-7.46,-7.46
90.0,113.0,-999.00,-6.92,-6.92
90.0,114.0,-999.00,-6.41,-6.41
90.0,115.0,-999.00,-5.92,-5.92
90.0,116.0,-999.00,-5.44,-5.44
90.0,117.0,-999.00,-4.98,-4.98
90.0,118.0,-999.00,-4.54,-4.54
90.0,119.0,-999.00,-4.11,-4.11
90.0,120.0,-999.00,-3.70,-3.70
90.0,121.0,-999.00,-3.29,-3.29
90.0,122.0,-999.00,-2.90,-2.90
90.0,123.0,-999.00,-2.53,-2.53
90.0,124.0,-999.00,-2.16,-2.16
90.0,125.0,-999.00,-1.81,-1.81
90.0,126.0,-999.00,-1.46,-1.46
90.0,127.0,-999.00,-1.13,-1.13
90.0,128.0,-999.00,-0.80,-0.80
90.0,129.0,-999.00,-0.49,-0.49
90.0,130.0,-999.00,-0.18,-0.18
90.0,131.0,-999.00,0.11,0.11
90.0,132.0,-999.00,0.40,0.40
90.0,133.0,-999.00,0.68,0.68
90.0,134.0,-999.00,0.95,0.95
90.0,135.0,-999.00,1.22,1.22
90.0,136.0,-999.00,1.47,1.47
90.0,137.0,-999.00,1.72,1.72
90.0,138.0,-999.00,1.97,1.97
90.0,139.0,-999.00,2.20,2.20
90.0,140.0,-999.00,2.43,2.43
90.0,141.0,-999.00,2.65,2.65
90.0,142.0,-999.00,2.86,2.86
90.0,143.0,-999.00,3.07,3.07
90.0,144.0,-999.00,3.27,3.27
90.0,145.0,-999.00,3.46,3.46
90.0,146.0,-999.00,3.65,3.65
90.0,147.0,-999.00,3.83,3.83
90.0,148.0,-999.00,4.01,4.01
90.0,149.0,-999.00,4.18,4.18
90.0,150.0,-999.00,4.34,4.34
90.0,151.0,-999.00,4.50,4.50
90.0,152.0,-999.00,4.65,4.65
90.0,153.0,-999.00,4.80,4.80
90.0,154.0,-999.00,4.94,4.94
90.0,155.0,-999.00,5.07,5.07
90.0,156.0,-999.00,5.20,5.20
90.0,157.0,-999.00,5.33,5.33
90.0,158.0,-999.00,5.45,5.45
90.0,159.0,-999.00,5.56,5.56
90.0,160.0,-999.00,5.67,5.67
90.0,161.0,-999.00,5.77,5.77
90.0,162.0,-999.00,5.86,5.86
90.0,163.0,-999.00,5.95,5.95
90.0,164.0,-999.00,6.04,6.04
90.0,165.0,-999.00,6.12,6.12
90.0,166.0,-999.00,6.19,6.19
90.0,167.0,-999.00,6.26,6.26
90.0,168.0,-999.00,6.33,6.33
90.0,169.0,-999.00,6.39,6.39
90.0,170.0,-999.00,6.44,6.44
90.0,171.0,-999.00,6.49,6.49
90.0,172.0,-999.00,6.54,6.54
90.0,173.0,-999.00,6.57,6.57
90.0,174.0,-999.00,6.61,6.61
90.0,175.0,-999.00,6.64,6.64
90.0,176.0,-999.00,6.66,6.66
90.0,177.0,-999.00,6.68,6.68
90.0,178.0,-999.00,6.69,6.69
90.0,179.0,-999.00,6.70,6.70
90.0,180.0,-999.00,6.70,6.70
90.0,181.0,-999.00,6.70,6.70
90.0,182.0,-999.00,6.69,6.69
90.0,183.0,-999.00,6.68,6.68
90.0,184.0,-999.00,6.66,6.66
90.0,185.0,-999.00,6.64,6.64
90.0,186.0,-999.00,6.61,6.61
90.0,187.0,-999.00,6.57,6.57
90.0,188.0,-999.00,6.54,6.54
90.0,189.0,-999.00,6.49,6.49
90.0,190.0,-999.00,6.44,6.44
90.0,191.0,-999.00,6.39,6.39
90.0,192.0,-999.00,6.33,6.33
90.0,193.0,-999.00,6.26,6.26
90.0,194.0,-999.00,6.19,6.19
90.0,195.0,-999.00,6.12,6.12
90.0,196.0,-999.00,6.04,6.04
90.0,197.0,-999.00,5.95,5.95
90.0,198.0,-999.00,5.86,5.86
90.0,199.0,-999.00,5.77,5.77
90.0,200.0,-999.00,5.67,5.67
90.0,201.0,-999.00,5.56,5.56
90.0,202.0,-999.00,5.45,5.45
90.0,203.0,-999.00,5.33,5.33
90.0,204.0,-999.00,5.20,5.20
90.0,205.0,-999.00,5.07,5.07
90.0,206.0,-999.00,4.94,4.94
90.0,207.0,-999.00,4.80,4.80
90.0,208.0,-999.00,4.65,4.65
90.0,209.0,-999.00,4.50,4.50
90.0,210.0,-999.00,4.34,4.34
90.0,211.0,-999.00,4.18,4.18
90.0,212.0,-999.00,4.01,4.01
90.0,213.0,-999.00,3.83,3.83
90.0,214.0,-999.00,3.65,3.65
90.0,215.0,-999.00,3.46,3.46
90.0,216.0,-999.00,3.27,3.27
90.0,217.0,-999.00,3.07,3.07
90.0,218.0,-999.00,2.86,2.86
90.0,219.0,-999.00,2.65,2.65
90.0,220.0,-999.00,2.43,2.43
90.0,221.0,-999.00,2.20,2.20
90.0,222.0,-999.00,1.97,1.97
90.0,223.0,-999.00,1.72,1.72
90.0,224.0,-999.00,1.47,1.47
90.0,225.0,-999.00,1.22,1.22
90.0,226.0,-999.00,0.95,0.95
90.0,227.0,-999.00,0.68,0.68
90.0,228.0,-999.00,0.40,0.40
90.0,229.0,-999.00,0.11,0.11
90.0,230.0,-999.00,-0.18,-0.18
90.0,231.0,-999.00,-0.49,-0.49
90.0,232.0,-999.00,-0.80,-0.80
90.0,233.0,-999.00,-1.13,-1.13
90.0,234.0,-999.00,-1.46,-1.46
90.0,235.0,-999.00,-1.81,-1.81
90.0,236.0,-999.00,-2.16,-2.16
90.0,237.0,-999.00,-2.53,-2.53
90.0,238.0,-999.00,-2.90,-2.90
90.0,239.0,-999.00,-3.29,-3.29
90.0,240.0,-999.00,-3.70,-3.70
90.0,241.0,-999.00,-4.11,-4.11
90.0,242.0,-999.00,-4.54,-4.54
90.0,243.0,-999.00,-4.98,-4.98
90.0,244.0,-999.00,-5.44,-5.44
90.0,245.0,-999.00,-5.92,-5.92
90.0,246.0,-999.00,-6.41,-6.41
90.0,247.0,-999.00,-6.92,-6.92
90.0,248.0,-999.00,-7.46,-7.46
90.0,249.0,-999.00,-8.01,-8.01
90.0,250.0,-999.00,-8.59,-8.59
90.0,251.0,-999.00,-9.20,-9.20
90.0,252.0,-999.00,-9.83,-9.83
90.0,253.0,-999.00,-10.49,-10.49
90.0,254.0,-999.00,-11.19,-11.19
90.0,255.0,-999.00,-11.93,-11.93
90.0,256.0,-999.00,-12.71,-12.71
90.0,257.0,-999.00,-13.53,-13.53
90.0,258.0,-999.00,-14.42,-14.42
90.0,259.0,-999.00,-15.37,-15.37
90.0,260.0,-999.00,-16.40,-16.40
90.0,261.0,-999.00,-17.52,-17.52
90.0,262.0,-999.00,-18.75,-18.75
90.0,263.0,-999.00,-20.12,-20.12
90.0,264.0,-999.00,-21.68,-21.68
90.0,265.0,-999.00,-23.49,-23.49
90.0,266.0,-999.00,-25.66,-25.66
90.0,267.0,-999.00,-28.39,-28.39
90.0,268.0,-999.00,-32.16,-32.16
90.0,269.0,-999.00,-38.43,-38.43
90.0,270.0,-999.00,-999.00,-999.00
90.0,271.0,-999.00,-38.94,-38.94
90.0,272.0,-999.00,-33.18,-33.18
90.0,273.0,-999.00,-29.93,-29.93
90.0,274.0,-999.00,-27.71,-27.71
90.0,275.0,-999.00,-26.05,-26.05
90.0,276.0,-999.00,-24.75,-24.75
90.0,277.0,-999.00,-23.70,-23.70
90.0,278.0,-999.00,-22.84,-22.84
90.0,279.0,-999.00,-22.11,-22.11
90.0,280.0,-999.00,-21.50,-21.50
90.0,281.0,-999.00,-20.98,-20.98
90.0,282.0,-999.00,-20.52,-20.52
90.0,283.0,-999.00,-20.13,-20.13
90.0,284.0,-999.00,-19.79,-19.79
90.0,285.0,-999.00,-19.48,-19.48
90.0,286.0,-999.00,-19.21,-19.21
90.0,287.0,-999.00,-18.95,-18.95
90.0,288.0,-999.00,-18.72,-18.72
90.0,289.0,-999.00,-18.49,-18.49
90.0,290.0,-999.00,-18.27,-18.27
90.0,291.0,-999.00,-18.04,-18.04
90.0,292.0,-999.00,-17.81,-17.81
90.0,293.0,-999.00,-17.56,-17.56
90.0,294.0,-999.00,-17.29,-17.29
90.0,295.0,-999.00,-17.00,-17.00
90.0,296.0,-999.00,-16.68,-16.68
90.0,297.0,-999.00,-16.34,-16.34
90.0,298.0,-999.00,-15.98,-15.98
90.0,299.0,-999.00,-15.59,-15.59
90.0,300.0,-999.00,-15.19,-15.19
90.0,301.0,-999.00,-14.76,-14.76
90.0,302.0,-999.00,-14.32,-14.32
90.0,303.0,-999.00,-13.86,-13.86
90.0,304.0,-999.00,-13.40,-13.40
90.0,305.0,-999.00,-12.93,-12.93
90.0,306.0,-999.00,-12.46,-12.46
90.0,307.0,-999.00,-11.99,-11.99
90.0,308.0,-999.00,-11.52,-11.52
90.0,309.0,-999.00,-11.06,-11.06
90.0,310.0,-999.00,-10.60,-10.60
90.0,311.0,-999.00,-10.15,-10.15
90.0,312.0,-999.00,-9.70,-9.70
90.0,313.0,-999.00,-9.27,-9.27
90.0,314.0,-999.00,-8.84,-8.84
90.0,315.0,-999.00,-8.43,-8.43
90.0,316.0,-999.00,-8.03,-8.03
90.0,317.0,-999.00,-7.63,-7.63
90.0,318.0,-999.00,-7.25,-7.25
90.0,319.0,-999.00,-6.88,-6.88
90.0,320.0,-999.00,-6.52,-6.52
90.0,321.0,-999.00,-6.17,-6.17
90.0,322.0,-999.00,-5.83,-5.83
90.0,323.0,-999.00,-5.50,-5.50
90.0,324.0,-999.00,-5.18,-5.18
90.0,325.0,-999.00,-4.87,-4.87
90.0,326.0,-999.00,-4.58,-4.58
90.0,327.0,-999.00,-4.29,-4.29
90.0,328.0,-999.00,-4.01,-4.01
90.0,329.0,-999.00,-3.75,-3.75
90.0,330.0,-999.00,-3.49,-3.49
90.0,331.0,-999.00,-3.25,-3.25
90.0,332.0,-999.00,-3.01,-3.01
90.0,333.0,-999.00,-2.78,-2.78
90.0,334.0,-999.00,-2.56,-2.56
90.0,335.0,-999.00,-2.36,-2.36
90.0,336.0,-999.00,-2.16,-2.16
90.0,337.0,-999.00,-1.97,-1.97
90.0,338.0,-999.00,-1.78,-1.78
90.0,339.0,-999.00,-1.61,-1.61
90.0,340.0,-999.00,-1.45,-1.45
90.0,341.0,-999.00,-1.29,-1.29
90.0,342.0,-999.00,-1.14,-1.14
90.0,343.0,-999.00,-1.00,-1.00
90.0,344.0,-999.00,-0.87,-0.87
90.0,345.0,-999.00,-0.75,-0.75
90.0,346.0,-999.00,-0.64,-0.64
90.0,347.0,-999.00,-0.53,-0.53
90.0,348.0,-999.00,-0.43,-0.43
90.0,349.0,-999.00,-0.34,-0.34
90.0,350.0,-999.00,-0.26,-0.26
90.0,351.0,-999.00,-0.19,-0.19
90.0,352.0,-999.00,-0.12,-0.12
90.0,353.0,-999.00,-0.06,-0.06
90.0,354.0,-999.00,-0.01,-0.01
90.0,355.0,-999.00,0.03,0.03
90.0,356.0,-999.00,0.06,0.06
90.0,357.0,-999.00,0.09,0.09
90.0,358.0,-999.00,0.11,0.11
90.0,359.0,-999.00,0.12,0.12
