ZENITH(DEG),AZIMUTH(DEG),VERT(dBi),HORI(dBi),TOTAL(dBi)
90.0,0.0,-999.00,2.54,2.54
90.0,1.0,-999.00,2.53,2.53
90.0,2.0,-999.00,2.52,2.52
90.0,3.0,-999.00,2.49,2.49
90.0,4.0,-999.00,2.45,2.45
90.0,5.0,-999.00,2.41,2.41
90.0,6.0,-999.00,2.35,2.35
90.0,7.0,-999.00,2.29,2.29
90.0,8.0,-999.00,2.21,2.21
90.0,9.0,-999.00,2.12,2.12
90.0,10.0,-999.00,2.02,2.02
90.0,11.0,-999.00,1.91,1.91
90.0,12.0,-999.00,1.79,1.79
90.0,13.0,-999.00,1.66,1.66
90.0,14.0,-999.00,1.52,1.52
90.0,15.0,-999.00,1.36,1.36
90.0,16.0,-999.00,1.19,1.19
90.0,17.0,-999.00,1.01,1.01
90.0,18.0,-999.00,0.81,0.81
90.0,19.0,-999.00,0.60,0.60
90.0,20.0,-999.00,0.38,0.38
90.0,21.0,-999.00,0.14,0.14
90.0,22.0,-999.00,-0.12,-0.12
90.0,23.0,-999.00,-0.39,-0.39
90.0,24.0,-999.00,-0.67,-0.67
90.0,25.0,-999.00,-0.98,-0.98
90.0,26.0,-999.00,-1.30,-1.30
90.0,27.0,-999.00,-1.64,-1.64
90.0,28.0,-999.00,-2.00,-2.00
90.0,29.0,-999.00,-2.38,-2.38
90.0,30.0,-999.00,-2.78,-2.78
90.0,31.0,-999.00,-3.21,-3.21
90.0,32.0,-999.00,-3.66,-3.66
90.0,33.0,-999.00,-4.13,-4.13
90.0,34.0,-999.00,-4.62,-4.62
90.0,35.0,-999.00,-5.14,-5.14
90.0,36.0,-999.00,-5.69,-5.69
90.0,37.0,-999.00,-6.27,-6.27
90.0,38.0,-999.00,-6.87,-6.87
90.0,39.0,-999.00,-7.51,-7.51
90.0,40.0,-999.00,-8.18,-8.18
90.0,41.0,-999.00,-8.87,-8.87
90.0,42.0,-999.00,-9.60,-9.60
90.0,43.0,-999.00,-10.35,-10.35
90.0,44.0,-999.00,-11.14,-11.14
90.0,45.0,-999.00,-11.94,-11.94
90.0,46.0,-999.00,-12.77,-12.77
90.0,47.0,-999.00,-13.60,-13.60
90.0,48.0,-999.00,-14.43,-14.43
90.0,49.0,-999.00,-15.24,-15.24
90.0,50.0,-999.00,-16.02,-16.02
90.0,51.0,-999.00,-16.74,-16.74
90.0,52.0,-999.00,-17.40,-17.40
90.0,53.0,-999.00,-17.97,-17.97
90.0,54.0,-999.00,-18.45,-18.45
90.0,55.0,-999.00,-18.85,-18.85
90.0,56.0,-999.00,-19.19,-19.19
90.0,57.0,-999.00,-19.47,-19.47
90.0,58.0,-999.00,-19.73,-19.73
90.0,59.0,-999.00,-19.99,-19.99
90.0,60.0,-999.00,-20.27,-20.27
90.0,61.0,-999.00,-20.59,-20.59
90.0,62.0,-999.00,-20.96,-20.96
90.0,63.0,-999.00,-21.40,-21.40
90.0,64.0,-999.00,-21.92,-21.92
90.0,65.0,-999.00,-22.54,-22.54
90.0,66.0,-999.00,-23.27,-23.27
90.0,67.0,-999.00,-24.11,-24.11
90.0,68.0,-999.00,-25.09,-25.09
90.0,69.0,-999.00,-26.20,-26.20
90.0,70.0,-999.00,-27.44,-27.44
90.0,71.0,-999.00,-28.77,-28.77
90.0,72.0,-999.00,-30.07,-30.07
90.0,73.0,-999.00,-31.12,-31.12
90.0,74.0,-999.00,-31.60,-31.60
90.0,75.0,-999.00,-31.40,-31.40
90.0,76.0,-999.00,-30.70,-30.70
90.0,77.0,-999.00,-29.81,-29.81
90.0,78.0,-999.00,-28.95,-28.95
90.0,79.0,-999.00,-28.22,-28.22
90.0,80.0,-999.00,-27.68,-27.68
90.0,81.0,-999.00,-27.34,-27.34
90.0,82.0,-999.00,-27.22,-27.22
90.0,83.0,-999.00,-27.33,-27.33
90.0,84.0,-999.00,-27.70,-27.70
90.0,85.0,-999.00,-28.40,-28.40
90.0,86.0,-999.00,-29.53,-29.53
90.0,87.0,-999.00,-31.28,-31.28
90.0,88.0,-999.00,-34.12,-34.12
90.0,89.0,-999.00,-39.50,-39.50
90.0,90.0,-999.00,-999.00,-999.00
90.0,91.0,-999.00,-38.38,-38.38
90.0,92.0,-999.00,-31.87,-31.87
90.0,93.0,-999.00,-27.89,-27.89
90.0,94.0,-999.00,-24.98,-24.98
90.0,95.0,-999.00,-22.66,-22.66
90.0,96.0,-999.00,-20.74,-20.74
90.0,97.0,-999.00,-19.09,-19.09
90.0,98.0,-999.00,-17.65,-17.65
90.0,99.0,-999.00,-16.39,-16.39
90.0,100.0,-999.00,-15.26,-15.26
90.0,101.0,-999.00,-14.25,-14.25
90.0,102.0,-999.00,-13.35,-13.35
90.0,103.0,-999.00,-12.54,-12.54
90.0,104.0,-999.00,-11.80,-11.80
90.0,105.0,-999.00,-11.15,-11.15
90.0,106.0,-999.00,-10.56,-10.56
90.0,107.0,-999.00,-10.04,-10.04
90.0,108.0,-999.00,-9.58,-9.58
90.0,109.0,-999.00,-9.18,-9.18
90.0,110.0,-999.00,-8.83,-8.83
90.0,111.0,-999.00,-8.54,-8.54
90.0,112.0,-999.00,-8.31,-8.31
90.0,113.0,-999.00,-8.14,-8.14
90.0,114.0,-999.00,-8.01,-8.01
90.0,115.0,-999.00,-7.95,-7.95
90.0,116.0,-999.00,-7.94,-7.94
90.0,117.0,-999.00,-7.99,-7.99
90.0,118.0,-999.00,-8.11,-8.11
90.0,119.0,-999.00,-8.28,-8.28
90.0,120.0,-999.00,-8.52,-8.52
90.0,121.0,-999.00,-8.83,-8.83
90.0,122.0,-999.00,-9.19,-9.19
90.0,123.0,-999.00,-9.62,-9.62
90.0,124.0,-999.00,-10.10,-10.10
90.0,125.0,-999.00,-10.59,-10.59
90.0,126.0,-999.00,-11.06,-11.06
90.0,127.0,-999.00,-11.42,-11.42
90.0,128.0,-999.00,-11.57,-11.57
90.0,129.0,-999.00,-11.43,-11.43
90.0,130.0,-999.00,-10.95,-10.95
90.0,131.0,-999.00,-10.17,-10.17
90.0,132.0,-999.00,-9.18,-9.18
90.0,133.0,-999.00,-8.08,-8.08
90.0,134.0,-999.00,-6.96,-6.96
90.0,135.0,-999.00,-5.84,-5.84
90.0,136.0,-999.00,-4.77,-4.77
90.0,137.0,-999.00,-3.75,-3.75
90.0,138.0,-999.00,-2.78,-2.78
90.0,139.0,-999.00,-1.87,-1.87
90.0,140.0,-999.00,-1.02,-1.02
90.0,141.0,-999.00,-0.21,-0.21
90.0,142.0,-999.00,0.54,0.54
90.0,143.0,-999.00,1.25,1.25
90.0,144.0,-999.00,1.92,1.92
90.0,145.0,-999.00,2.56,2.56
90.0,146.0,-999.00,3.15,3.15
90.0,147.0,-999.00,3.72,3.72
90.0,148.0,-999.00,4.25,4.25
90.0,149.0,-999.00,4.75,4.75
90.0,150.0,-999.00,5.22,5.22
90.0,151.0,-999.00,5.67,5.67
90.0,152.0,-999.00,6.10,6.10
90.0,153.0,-999.00,6.50,6.50
90.0,154.0,-999.00,6.88,6.88
90.0,155.0,-999.00,7.24,7.24
90.0,156.0,-999.00,7.58,7.58
90.0,157.0,-999.00,7.90,7.90
90.0,158.0,-999.00,8.20,8.20
90.0,159.0,-999.00,8.48,8.48
90.0,160.0,-999.00,8.75,8.75
90.0,161.0,-999.00,9.00,9.00
90.0,162.0,-999.00,9.24,9.24
90.0,163.0,-999.00,9.46,9.46
90.0,164.0,-999.00,9.66,9.66
90.0,165.0,-999.00,9.85,9.85
90.0,166.0,-999.00,10.03,10.03
90.0,167.0,-999.00,10.19,10.19
90.0,168.0,-999.00,10.34,10.34
90.0,169.0,-999.00,10.48,10.48
90.0,170.0,-999.00,10.60,10.60
90.0,171.0,-999.00,10.72,10.72
90.0,172.0,-999.00,10.82,10.82
90.0,173.0,-999.00,10.90,10.90
90.0,174.0,-999.00,10.98,10.98
90.0,175.0,-999.00,11.04,11.04
90.0,176.0,-999.00,11.09,11.09
90.0,177.0,-999.00,11.13,11.13
90.0,178.0,-999.00,11.16,11.16
90.0,179.0,-999.00,11.18,11.18
90.0,180.0,-999.00,11.18,11.18
90.0,181.0,-999.00,11.18,11.18
90.0,182.0,-999.00,11.16,11.16
90.0,183.0,-999.00,11.13,11.13
90.0,184.0,-999.00,11.09,11.09
90.0,185.0,-999.00,11.04,11.04
90.0,186.0,-999.00,10.98,10.98
90.0,187.0,-999.00,10.90,10.90
90.0,188.0,-999.00,10.82,10.82
90.0,189.0,-999.00,10.72,10.72
90.0,190.0,-999.00,10.60,10.60
90.0,191.0,-999.00,10.48,10.48
90.0,192.0,-999.00,10.34,10.34
90.0,193.0,-999.00,10.19,10.19
90.0,194.0,-999.00,10.03,10.03
90.0,195.0,-999.00,9.85,9.85
90.0,196.0,-999.00,9.66,9.66
90.0,197.0,-999.00,9.46,9.46
90.0,198.0,-999.00,9.24,9.24
90.0,199.0,-999.00,9.00,9.00
90.0,200.0,-999.00,8.75,8.75
90.0,201.0,-999.00,8.48,8.48
90.0,202.0,-999.00,8.20,8.20
90.0,203.0,-999.00,7.90,7.90
90.0,204.0,-999.00,7.58,7.58
90.0,205.0,-999.00,7.24,7.24
90.0,206.0,-999.00,6.88,6.88
90.0,207.0,-999.00,6.50,6.50
90.0,208.0,-999.00,6.10,6.10
90.0,209.0,-999.00,5.67,5.67
90.0,210.0,-999.00,5.22,5.22
90.0,211.0,-999.00,4.75,4.75
90.0,212.0,-999.00,4.25,4.25
90.0,213.0,-999.00,3.72,3.72
90.0,214.0,-999.00,3.15,3.15
90.0,215.0,-999.00,2.56,2.56
90.0,216.0,-999.00,1.92,1.92
90.0,217.0,-999.00,1.25,1.25
90.0,218.0,-999.00,0.54,0.54
90.0,219.0,-999.00,-0.21,-0.21
90.0,220.0,-999.00,-1.02,-1.02
90.0,221.0,-999.00,-1.87,-1.87
90.0,222.0,-999.00,-2.78,-2.78
90.0,223.0,-999.00,-3.75,-3.75
90.0,224.0,-999.00,-4.77,-4.77
90.0,225.0,-999.00,-5.84,-5.84
90.0,226.0,-999.00,-6.96,-6.96
90.0,227.0,-999.00,-8.08,-8.08
90.0,228.0,-999.00,-9.18,-9.18
90.0,229.0,-999.00,-10.17,-10.17
90.0,230.0,-999.00,-10.95,-10.95
90.0,231.0,-999.00,-11.43,-11.43
90.0,232.0,-999.00,-11.57,-11.57
90.0,233.0,-999.00,-11.42,-11.42
90.0,234.0,-999.00,-11.06,-11.06
90.0,235.0,-999.00,-10.59,-10.59
90.0,236.0,-999.00,-10.10,-10.10
90.0,237.0,-999.00,-9.62,-9.62
90.0,238.0,-999.00,-9.19,-9.19
90.0,239.0,-999.00,-8.83,-8.83
90.0,240.0,-999.00,-8.52,-8.52
90.0,241.0,-999.00,-8.28,-8.28
90.0,242.0,-999.00,-8.11,-8.11
90.0,243.0,-999.00,-7.99,-7.99
90.0,244.0,-999.00,-7.94,-7.94
90.0,245.0,-999.00,-7.95,-7.95
90.0,246.0,-999.00,-8.01,-8.01
90.0,247.0,-999.00,-8.14,-8.14
90.0,248.0,-999.00,-8.31,-8.31
90.0,249.0,-999.00,-8.54,-8.54
90.0,250.0,-999.00,-8.83,-8.83
90.0,251.0,-999.00,-9.18,-9.18
90.0,252.0,-999.00,-9.58,-9.58
90.0,253.0,-999.00,-10.04,-10.04
90.0,254.0,-999.00,-10.56,-10.56
90.0,255.0,-999.00,-11.15,-11.15
90.0,256.0,-999.00,-11.80,-11.80
90.0,257.0,-999.00,-12.54,-12.54
90.0,258.0,-999.00,-13.35,-13.35
90.0,259.0,-999.00,-14.25,-14.25
90.0,260.0,-999.00,-15.26,-15.26
90.0,261.0,-999.00,-16.39,-16.39
90.0,262.0,-999.00,-17.65,-17.65
90.0,263.0,-999.00,-19.09,-19.09
90.0,264.0,-999.00,-20.74,-20.74
90.0,265.0,-999.00,-22.66,-22.66
90.0,266.0,-999.00,-24.98,-24.98
90.0,267.0,-999.00,-27.89,-27.89
90.0,268.0,-999.00,-31.87,-31.87
90.0,269.0,-999.00,-38.38,-38.38
90.0,270.0,-999.00,-999.00,-999.00
90.0,271.0,-999.00,-39.50,-39.50
90.0,272.0,-999.00,-34.12,-34.12
90.0,273.0,-999.00,-31.28,-31.28
90.0,274.0,-999.00,-29.53,-29.53
90.0,275.0,-999.00,-28.40,-28.40
90.0,276.0,-999.00,-27.70,-27.70
90.0,277.0,-999.00,-27.33,-27.33
90.0,278.0,-999.00,-27.21,-27.21
90.0,279.0,-999.00,-27.34,-27.34
90.0,280.0,-999.00,-27.68,-27.68
90.0,281.0,-999.00,-28.22,-28.22
90.0,282.0,-999.00,-28.95,-28.95
90.0,283.0,-999.00,-29.81,-29.81
90.0,284.0,-999.00,-30.70,-30.70
90.0,285.0,-999.00,-31.40,-31.40
90.0,286.0,-999.00,-31.60,-31.60
90.0,287.0,-999.00,-31.12,-31.12
90.0,288.0,-999.00,-30.07,-30.07
90.0,289.0,-999.00,-28.77,-28.77
90.0,290.0,-999.00,-27.44,-27.44
90.0,291.0,-999.00,-26.20,-26.20
90.0,292.0,-999.00,-25.09,-25.09
90.0,293.0,-999.00,-24.11,-24.11
90.0,294.0,-999.00,-23.27,-23.27
90.0,295.0,-999.00,-22.54,-22.54
90.0,296.0,-999.00,-21.93,-21.93
90.0,297.0,-999.00,-21.40,-21.40
90.0,298.0,-999.00,-20.96,-20.96
90.0,299.0,-999.00,-20.59,-20.59
90.0,300.0,-999.00,-20.27,-20.27
90.0,301.0,-999.00,-19.99,-19.99
90.0,302.0,-999.00,-19.73,-19.73
90.0,303.0,-999.00,-19.47,-19.47
90.0,304.0,-999.00,-19.19,-19.19
90.0,305.0,-999.00,-18.85,-18.85
90.0,306.0,-999.00,-18.45,-18.45
90.0,307.0,-999.00,-17.97,-17.97
90.0,308.0,-999.00,-17.40,-17.40
90.0,309.0,-999.00,-16.74,-16.74
90.0,310.0,-999.00,-16.02,-16.02
90.0,311.0,-999.00,-15.24,-15.24
90.0,312.0,-999.00,-14.43,-14.43
90.0,313.0,-999.00,-13.60,-13.60
90.0,314.0,-999.00,-12.77,-12.77
90.0,315.0,-999.00,-11.94,-11.94
90.0,316.0,-999.00,-11.14,-11.14
90.0,317.0,-999.00,-10.35,-10.35
90.0,318.0,-999.00,-9.60,-9.60
90.0,319.0,-999.00,-8.87,-8.87
90.0,320.0,-999.00,-8.18,-8.18
90.0,321.0,-999.00,-7.51,-7.51
90.0,322.0,-999.00,-6.87,-6.87
90.0,323.0,-999.00,-6.27,-6.27
90.0,324.0,-999.00,-5.69,-5.69
90.0,325.0,-999.00,-5.14,-5.14
90.0,326.0,-999.00,-4.62,-4.62
90.0,327.0,-999.00,-4.13,-4.13
90.0,328.0,-999.00,-3.66,-3.66
90.0,329.0,-999.00,-3.21,-3.21
90.0,330.0,-999.00,-2.78,-2.78
90.0,331.0,-999.00,-2.38,-2.38
90.0,332.0,-999.00,-2.00,-2.00
90.0,333.0,-999.00,-1.64,-1.64
90.0,334.0,-999.00,-1.30,-1.30
90.0,335.0,-999.00,-0.98,-0.98
90.0,336.0,-999.00,-0.67,-0.67
90.0,337.0,-999.00,-0.39,-0.39
90.0,338.0,-999.00,-0.12,-0.12
90.0,339.0,-999.00,0.14,0.14
90.0,340.0,-999.00,0.38,0.38
90.0,341.0,-999.00,0.60,0.60
90.0,342.0,-999.00,0.81,0.81
90.0,343.0,-999.00,1.01,1.01
90.0,344.0,-999.00,1.19,1.19
90.0,345.0,-999.00,1.36,1.36
90.0,346.0,-999.00,1.52,1.52
90.0,347.0,-999.00,1.66,1.66
90.0,348.0,-999.00,1.79,1.79
90.0,349.0,-999.00,1.91,1.91
90.0,350.0,-999.00,2.02,2.02
90.0,351.0,-999.00,2.12,2.12
90.0,352.0,-999.00,2.21,2.21
90.0,353.0,-999.00,2.29,2.29
90.0,354.0,-999.00,2.35,2.35
90.0,355.0,-999.00,2.41,2.41
90.0,356.0,-999.00,2.45,2.45
90.0,357.0,-999.00,2.49,2.49
90.0,358.0,-999.00,2.52,2.52
90.0,359.0,-999.00,2.53,2.53
